4_1_Mux/traces.vcd
$date
     Feb 16, 2024       10:33:51
$end

$version
 SystemC 2.3.3-Accellera --- Jan  4 2023 16:42:11
$end

$timescale
     1 ps
$end

$scope module SystemC $end
$var wire    1  aaaaa  a0       $end
$var wire    1  aaaab  a1       $end
$var wire    1  aaaac  a2       $end
$var wire    1  aaaad  a3       $end
$var wire    1  aaaae  sel0       $end
$var wire    1  aaaaf  sel1       $end
$var wire    1  aaaag  out       $end
$upscope $end
$enddefinitions  $end

$comment
All initial values are dumped below at time 0 sec = 0 timescale units.
$end

$dumpvars
0aaaaa
0aaaab
0aaaac
0aaaad
0aaaae
0aaaaf
0aaaag
$end

#5000
1aaaae

#10000
0aaaae
1aaaaf

#15000
1aaaae

#20000
1aaaaa
0aaaae
0aaaaf
1aaaag

#25000
1aaaae
0aaaag

#30000
0aaaae
1aaaaf

#35000
1aaaae

#40000
0aaaaa
1aaaab
0aaaae
0aaaaf

#45000
1aaaae
1aaaag

#50000
0aaaae
1aaaaf
0aaaag

#55000
1aaaae

#60000
1aaaaa
0aaaae
0aaaaf
1aaaag

#65000
1aaaae

#70000
0aaaae
1aaaaf
0aaaag

#75000
1aaaae

#80000
0aaaaa
0aaaab
1aaaac
0aaaae
0aaaaf

#85000
1aaaae

#90000
0aaaae
1aaaaf
1aaaag

#95000
1aaaae
0aaaag

#100000
1aaaaa
0aaaae
0aaaaf
1aaaag

#105000
1aaaae
0aaaag

#110000
0aaaae
1aaaaf
1aaaag

#115000
1aaaae
0aaaag

#120000
0aaaaa
1aaaab
0aaaae
0aaaaf

#125000
1aaaae
1aaaag

#130000
0aaaae
1aaaaf

#135000
1aaaae
0aaaag

#140000
1aaaaa
0aaaae
0aaaaf
1aaaag

#145000
1aaaae

#150000
0aaaae
1aaaaf

#155000
1aaaae
0aaaag

#160000
0aaaaa
0aaaab
0aaaac
1aaaad
0aaaae
0aaaaf

#165000
1aaaae

#170000
0aaaae
1aaaaf

#175000
1aaaae
1aaaag

#180000
1aaaaa
0aaaae
0aaaaf

#185000
1aaaae
0aaaag

#190000
0aaaae
1aaaaf

#195000
1aaaae
1aaaag

#200000
0aaaaa
1aaaab
0aaaae
0aaaaf
0aaaag

#205000
1aaaae
1aaaag

#210000
0aaaae
1aaaaf
0aaaag

#215000
1aaaae
1aaaag

#220000
1aaaaa
0aaaae
0aaaaf

#225000
1aaaae

#230000
0aaaae
1aaaaf
0aaaag

#235000
1aaaae
1aaaag

#240000
0aaaaa
0aaaab
1aaaac
0aaaae
0aaaaf
0aaaag

#245000
1aaaae

#250000
0aaaae
1aaaaf
1aaaag

#255000
1aaaae

#260000
1aaaaa
0aaaae
0aaaaf

#265000
1aaaae
0aaaag

#270000
0aaaae
1aaaaf
1aaaag

#275000
1aaaae

#280000
0aaaaa
1aaaab
0aaaae
0aaaaf
0aaaag

#285000
1aaaae
1aaaag

#290000
0aaaae
1aaaaf

#295000
1aaaae

#300000
1aaaaa
0aaaae
0aaaaf

#305000
1aaaae

#310000
0aaaae
1aaaaf

#315000
1aaaae

