4_1_encoder/traces.vcd
$date
     Feb 15, 2024       10:39:59
$end

$version
 SystemC 2.3.3-Accellera --- Jan  4 2023 16:42:11
$end

$timescale
     1 ps
$end

$scope module SystemC $end
$var wire    1  aaaaa  a0       $end
$var wire    1  aaaab  a1       $end
$var wire    1  aaaac  a2       $end
$var wire    1  aaaad  a3       $end
$var wire    1  aaaae  en       $end
$var wire    2  aaaaf  d [1:0]  $end
$upscope $end
$enddefinitions  $end

$comment
All initial values are dumped below at time 0 sec = 0 timescale units.
$end

$dumpvars
0aaaaa
0aaaab
0aaaac
0aaaad
1aaaae
b0 aaaaf
$end

#5000
1aaaaa

#10000
0aaaaa
1aaaab
b1 aaaaf

#15000
0aaaab
1aaaac
b10 aaaaf

#20000
0aaaac
1aaaad
b11 aaaaf

#25000
0aaaad
0aaaae

#30000
1aaaaa

#35000
0aaaaa
1aaaab

#40000
0aaaab
1aaaac

#45000
0aaaac
1aaaad

